
//answer:17
10 6 3 
1
2
3
4
5
6
7
8
9
10
1 3
4 1
7 3
4 7
2 7
3 5

//answer:24
10 7 3
1
2
3
4
5
6
7
8
9
10
1 3
4 1
7 3
4 7
2 7
3 5
6 4

//answer: u expect answer?
10 7 3
1
2
3
4
5
6
7
8
9
10
1 3
4 1
7 3
4 7
2 7
3 5
5 4
